<?xml version="1.0" encoding="UTF-8" standalone="no"?>
<svg
   xmlns:dc="http://purl.org/dc/elements/1.1/"
   xmlns:cc="http://creativecommons.org/ns#"
   xmlns:rdf="http://www.w3.org/1999/02/22-rdf-syntax-ns#"
   xmlns:svg="http://www.w3.org/2000/svg"
   xmlns="http://www.w3.org/2000/svg"
   xmlns:xlink="http://www.w3.org/1999/xlink"
   xmlns:sodipodi="http://sodipodi.sourceforge.net/DTD/sodipodi-0.dtd"
   xmlns:inkscape="http://www.inkscape.org/namespaces/inkscape"
   width="512mm"
   height="512mm"
   viewBox="0 0 512 512"
   version="1.1"
   id="svg8"
   sodipodi:docname="plug.svg"
   inkscape:version="1.0.1 (3bc2e813f5, 2020-09-07)"
   enable-background="new"
   inkscape:export-filename="/home/vm/Desktop/failed.png"
   inkscape:export-xdpi="6.3499999"
   inkscape:export-ydpi="6.3499999">
  <defs
     id="defs2">
    <linearGradient
       inkscape:collect="always"
       id="linearGradient1282">
      <stop
         style="stop-color:#018e39;stop-opacity:1;"
         offset="0"
         id="stop1278" />
      <stop
         style="stop-color:#0f4e28;stop-opacity:0.99688697"
         offset="1"
         id="stop1280" />
    </linearGradient>
    <linearGradient
       inkscape:collect="always"
       id="linearGradient1177">
      <stop
         style="stop-color:#0c5c2a;stop-opacity:1"
         offset="0"
         id="stop1169" />
      <stop
         style="stop-color:#1bc95c;stop-opacity:1"
         offset="0.42667478"
         id="stop1171" />
      <stop
         style="stop-color:#1bc95c;stop-opacity:1"
         offset="0.57975519"
         id="stop1173" />
      <stop
         style="stop-color:#80eea9;stop-opacity:1"
         offset="1"
         id="stop1175" />
    </linearGradient>
    <linearGradient
       inkscape:collect="always"
       id="linearGradient1138">
      <stop
         style="stop-color:#aed7f8;stop-opacity:1"
         offset="0"
         id="stop1130" />
      <stop
         style="stop-color:#1072c2;stop-opacity:1"
         offset="0.28522378"
         id="stop1132" />
      <stop
         style="stop-color:#1072c2;stop-opacity:1"
         offset="0.67184997"
         id="stop1134" />
      <stop
         style="stop-color:#052641;stop-opacity:1"
         offset="1"
         id="stop1136" />
    </linearGradient>
    <linearGradient
       inkscape:collect="always"
       id="linearGradient1106">
      <stop
         style="stop-color:#ffffff;stop-opacity:1"
         offset="0"
         id="stop1102" />
      <stop
         style="stop-color:#c2c2c2;stop-opacity:0.99688697"
         offset="0.28522378"
         id="stop1110" />
      <stop
         style="stop-color:#c2c2c2;stop-opacity:0.96620578"
         offset="0.67184997"
         id="stop1112" />
      <stop
         style="stop-color:#636363;stop-opacity:1"
         offset="1"
         id="stop1104" />
    </linearGradient>
    <filter
       inkscape:menu-tooltip="Transparent plastic with deep colors"
       inkscape:menu="Bevels"
       inkscape:label="Deep Colors Plastic"
       style="color-interpolation-filters:sRGB"
       id="filter4588-9">
      <feGaussianBlur
         in="SourceGraphic"
         result="result6"
         stdDeviation="10"
         id="feGaussianBlur4568-2" />
      <feComposite
         in2="SourceGraphic"
         in="result6"
         operator="xor"
         id="feComposite4570-7" />
      <feGaussianBlur
         result="result2"
         stdDeviation="10"
         id="feGaussianBlur4572-4" />
      <feComposite
         in2="SourceGraphic"
         operator="atop"
         result="result91"
         id="feComposite4574-2" />
      <feComposite
         result="result4"
         in="result2"
         operator="xor"
         in2="result91"
         id="feComposite4576-5" />
      <feGaussianBlur
         in="result4"
         result="result3"
         stdDeviation="5"
         id="feGaussianBlur4578-2" />
      <feSpecularLighting
         lighting-color="#ffffff"
         in="result3"
         result="result5"
         specularExponent="35"
         specularConstant="3"
         surfaceScale="12"
         id="feSpecularLighting4582-4">
        <feDistantLight
           elevation="45"
           azimuth="235"
           id="feDistantLight4580-4" />
      </feSpecularLighting>
      <feComposite
         k4="0"
         k1="0"
         in2="result5"
         in="SourceGraphic"
         k3="0.7"
         k2="0.8"
         operator="arithmetic"
         result="result7"
         id="feComposite4584-3" />
      <feComposite
         in="result7"
         operator="in"
         in2="SourceGraphic"
         id="feComposite4586-8" />
    </filter>
    <filter
       inkscape:menu-tooltip="Transparent plastic with deep colors"
       inkscape:menu="Bevels"
       inkscape:label="Deep Colors Plastic"
       style="color-interpolation-filters:sRGB;"
       id="filter4944">
      <feGaussianBlur
         in="SourceGraphic"
         result="result6"
         stdDeviation="10"
         id="feGaussianBlur4924" />
      <feComposite
         in2="SourceGraphic"
         in="result6"
         operator="xor"
         id="feComposite4926" />
      <feGaussianBlur
         result="result2"
         stdDeviation="10"
         id="feGaussianBlur4928" />
      <feComposite
         in2="SourceGraphic"
         operator="atop"
         result="result91"
         id="feComposite4930" />
      <feComposite
         result="result4"
         in="result2"
         operator="xor"
         in2="result91"
         id="feComposite4932" />
      <feGaussianBlur
         in="result4"
         result="result3"
         stdDeviation="5"
         id="feGaussianBlur4934" />
      <feSpecularLighting
         lighting-color="rgb(255,255,255)"
         in="result3"
         result="result5"
         specularExponent="35"
         specularConstant="3"
         surfaceScale="12"
         id="feSpecularLighting4938">
        <feDistantLight
           elevation="45"
           azimuth="235"
           id="feDistantLight4936" />
      </feSpecularLighting>
      <feComposite
         in2="result5"
         in="SourceGraphic"
         k3="0.7"
         k2="0.8"
         operator="arithmetic"
         result="result7"
         id="feComposite4940" />
      <feComposite
         in="result7"
         operator="in"
         in2="SourceGraphic"
         id="feComposite4942" />
    </filter>
    <filter
       inkscape:label="Matte Bevel"
       inkscape:menu="Bevels"
       inkscape:menu-tooltip="Soft, pastel-colored, blurry bevel"
       x="-0.25"
       y="-0.25"
       width="1.5"
       height="1.5"
       style="color-interpolation-filters:sRGB;"
       id="filter4491">
      <feGaussianBlur
         stdDeviation="1"
         result="result6"
         id="feGaussianBlur4467" />
      <feComposite
         operator="in"
         in="result6"
         in2="result6"
         result="result7"
         id="feComposite4469" />
      <feGaussianBlur
         stdDeviation="8"
         result="result3"
         in="result7"
         id="feGaussianBlur4471" />
      <feComposite
         in2="result7"
         operator="over"
         result="result91"
         id="feComposite4473" />
      <feComposite
         operator="in"
         in="result3"
         result="result5"
         in2="result91"
         id="feComposite4475" />
      <feColorMatrix
         values="0 0 0 -1 0 0 0 0 -1 0 0 0 0 -1 0 0 0 0 1 0 "
         result="result4"
         id="feColorMatrix4477" />
      <feSpecularLighting
         surfaceScale="3"
         specularConstant="2"
         specularExponent="45"
         in="result4"
         result="result11"
         id="feSpecularLighting4481">
        <fePointLight
           x="-5000"
           y="-10000"
           z="20000"
           id="fePointLight4479" />
      </feSpecularLighting>
      <feComposite
         operator="arithmetic"
         k1="1"
         in2="result4"
         result="result10"
         id="feComposite4483" />
      <feComposite
         operator="arithmetic"
         k2="0.5"
         k3="1"
         in="result5"
         result="result8"
         in2="result10"
         id="feComposite4485" />
      <feComposite
         result="result9"
         in2="result8"
         id="feComposite4487" />
      <feBlend
         mode="normal"
         in2="result9"
         id="feBlend4489" />
    </filter>
    <filter
       inkscape:label="Button"
       inkscape:menu="Bevels"
       inkscape:menu-tooltip="Soft bevel, slightly depressed middle"
       style="color-interpolation-filters:sRGB;"
       id="filter4527">
      <feGaussianBlur
         stdDeviation="2.3"
         in="SourceAlpha"
         result="result0"
         id="feGaussianBlur4501" />
      <feMorphology
         in="SourceAlpha"
         radius="6.6"
         result="result1"
         id="feMorphology4503" />
      <feGaussianBlur
         stdDeviation="8.9"
         in="result1"
         id="feGaussianBlur4505" />
      <feColorMatrix
         values="1 0 0 0 0 0 1 0 0 0 0 0 1 0 0 0 0 0 0.3 0"
         result="result91"
         id="feColorMatrix4507" />
      <feComposite
         in="result0"
         operator="out"
         result="result2"
         in2="result91"
         id="feComposite4509" />
      <feGaussianBlur
         stdDeviation="1.7"
         result="result4"
         id="feGaussianBlur4511" />
      <feDiffuseLighting
         surfaceScale="10"
         id="feDiffuseLighting4515">
        <feDistantLight
           azimuth="225"
           elevation="45"
           id="feDistantLight4513" />
      </feDiffuseLighting>
      <feBlend
         in2="SourceGraphic"
         mode="multiply"
         id="feBlend4517" />
      <feComposite
         in2="SourceAlpha"
         operator="in"
         result="result3"
         id="feComposite4519" />
      <feSpecularLighting
         in="result4"
         surfaceScale="5"
         specularExponent="17.9"
         id="feSpecularLighting4523">
        <feDistantLight
           azimuth="225"
           elevation="45"
           id="feDistantLight4521" />
      </feSpecularLighting>
      <feComposite
         in2="result3"
         operator="atop"
         id="feComposite4525" />
    </filter>
    <linearGradient
       inkscape:collect="always"
       xlink:href="#linearGradient1106"
       id="linearGradient1108"
       x1="-1017.5561"
       y1="-67.194931"
       x2="-1017.5561"
       y2="-29.780054"
       gradientUnits="userSpaceOnUse"
       gradientTransform="matrix(0.76450228,0,0,0.76450228,1023.2071,24.823857)" />
    <linearGradient
       inkscape:collect="always"
       xlink:href="#linearGradient1106"
       id="linearGradient1120"
       x1="-1009.476"
       y1="72.022881"
       x2="-1009.476"
       y2="110.02184"
       gradientUnits="userSpaceOnUse"
       gradientTransform="matrix(0.76450228,0,0,0.76450228,1023.2071,24.823857)" />
    <linearGradient
       inkscape:collect="always"
       xlink:href="#linearGradient1138"
       id="linearGradient1128"
       x1="-2444.1533"
       y1="226.93233"
       x2="-2436.5962"
       y2="1564.4567"
       gradientUnits="userSpaceOnUse"
       gradientTransform="matrix(0.20227456,0,0,0.20227456,927.22292,-139.54413)" />
    <linearGradient
       inkscape:collect="always"
       xlink:href="#linearGradient1177"
       id="linearGradient1147"
       x1="-1136.6417"
       y1="201.21362"
       x2="-1134.3123"
       y2="-153.06268"
       gradientUnits="userSpaceOnUse"
       gradientTransform="matrix(0.76450228,0,0,0.76450228,1023.2071,24.823857)" />
    <linearGradient
       inkscape:collect="always"
       xlink:href="#linearGradient1282"
       id="linearGradient1284"
       x1="-1261.6467"
       y1="-150.84595"
       x2="-1252.2816"
       y2="201.38062"
       gradientUnits="userSpaceOnUse"
       gradientTransform="matrix(0.76450228,0,0,0.76450228,1023.2071,24.823857)" />
  </defs>
  <sodipodi:namedview
     id="base"
     pagecolor="#ffffff"
     bordercolor="#666666"
     borderopacity="1.0"
     inkscape:pageopacity="0.0"
     inkscape:pageshadow="2"
     inkscape:zoom="0.11313709"
     inkscape:cx="832.91085"
     inkscape:cy="2129.5784"
     inkscape:document-units="mm"
     inkscape:current-layer="layer1"
     inkscape:document-rotation="0"
     showgrid="false"
     inkscape:window-width="2560"
     inkscape:window-height="1315"
     inkscape:window-x="0"
     inkscape:window-y="0"
     inkscape:window-maximized="1"
     inkscape:snap-global="false"
     inkscape:snap-bbox="true"
     showguides="true"
     inkscape:guide-bbox="true"
     inkscape:snap-midpoints="true"
     inkscape:snap-center="false"
     inkscape:snap-object-midpoints="false"
     inkscape:snap-bbox-midpoints="true"
     inkscape:snap-bbox-edge-midpoints="true"
     inkscape:bbox-nodes="true" />
  <metadata
     id="metadata5">
    <rdf:RDF>
      <cc:Work
         rdf:about="">
        <dc:format>image/svg+xml</dc:format>
        <dc:type
           rdf:resource="http://purl.org/dc/dcmitype/StillImage" />
        <dc:title />
      </cc:Work>
    </rdf:RDF>
  </metadata>
  <g
     inkscape:label="Layer 1"
     inkscape:groupmode="layer"
     id="layer1"
     transform="translate(0,215)">
    <g
       id="g77"
       transform="matrix(0.34300455,0,0,1.0168927,-553.24659,-22.890429)"
       style="stroke-width:1.00069096;stroke-miterlimit:4;stroke-dasharray:none;fill:#808080;stroke:none" />
    <path
       id="circle79"
       style="fill:#f8f8f8;stroke:#000000;stroke-width:4.05632708;stroke-miterlimit:4;stroke-dasharray:none;fill-opacity:1"
       d="m 366.08894,-55.32816 a 45.950794,136.2286 0 0 1 0,192.65633 45.950794,136.2286 0 0 1 -64.98424,-1e-5 45.950794,136.2286 0 0 1 0,-192.65632 45.950794,136.2286 0 0 1 64.98424,0 z" />
    <path
       id="rect910"
       style="fill:url(#linearGradient1128);fill-opacity:1;stroke:none;stroke-width:2903.08;stroke-miterlimit:4;stroke-dasharray:none"
       d="m 333.90774,-97.278326 c 12.18685,2e-4 23.56367,16.402584 32.18106,41.950337 17.94488,53.2005667 17.94488,139.455672 0,192.656239 -8.60104,25.49916 -19.9506,41.89741 -32.11429,41.94995 h 137.01616 c 7.0521,0.0371 13.81744,-16.36801 18.80403,-41.94995 10.37016,-53.200567 10.37016,-139.4556723 0,-192.656239 -4.9799,-25.547774 -11.7341,-41.95016 -18.77676,-41.950337 z"
       sodipodi:nodetypes="cssccsscc" />
    <rect
       style="fill:#000000;fill-opacity:0.996887;stroke:none;stroke-width:0.198976;stroke-miterlimit:4;stroke-dasharray:none"
       id="rect1089"
       width="28.606073"
       height="28.606073"
       x="319.89267"
       y="-26.713625"
       ry="18.708866"
       rx="18.708866" />
    <rect
       style="fill:#000000;fill-opacity:0.996887;stroke:none;stroke-width:0.198975;stroke-miterlimit:4;stroke-dasharray:none"
       id="rect1091"
       width="28.605871"
       height="28.605871"
       x="319.89267"
       y="80.107689"
       ry="18.708866"
       rx="18.708866" />
    <rect
       style="fill:url(#linearGradient1108);fill-opacity:1;stroke:none;stroke-width:0.323145;stroke-miterlimit:4;stroke-dasharray:none"
       id="rect1098"
       width="75.448952"
       height="28.605942"
       x="206.29526"
       y="-26.713625"
       ry="18.708866"
       rx="18.708866" />
    <rect
       style="fill:url(#linearGradient1120);fill-opacity:1;stroke:none;stroke-width:0.323384;stroke-miterlimit:4;stroke-dasharray:none"
       id="rect1077"
       width="75.448952"
       height="28.605942"
       x="206.29526"
       y="80.107689"
       ry="18.708866"
       rx="18.708866" />
    <path
       style="fill:#280b0b;fill-opacity:1;stroke:none;stroke-width:3208.93;stroke-miterlimit:4;stroke-dasharray:none"
       d="m 219.60288,-58.893231 c 12.04161,55.9779403 12.04161,146.736111 0,202.714051 -12.04162,55.97773 -31.56487,55.97773 -43.60649,-1e-5 -12.04161,-55.977939 -12.04161,-146.7361019 0,-202.714041 12.04162,-55.977739 31.56487,-55.977739 43.60649,0 z"
       id="path1063" />
    <path
       id="path1077"
       style="fill:url(#linearGradient1147);fill-opacity:1;stroke:none;stroke-width:2903.08;stroke-miterlimit:4;stroke-dasharray:none"
       d="M 60.378632,-95.228587 H 197.7996 V 177.2286 H 60.378632 Z M 216.57646,-55.32816 a 26.55448,136.2286 0 0 1 0,192.65633 26.55448,136.2286 0 0 1 -37.55365,-1e-5 26.55448,136.2286 0 0 1 0,-192.65632 26.55448,136.2286 0 0 1 37.55365,0 z" />
    <path
       id="path1079"
       style="fill:url(#linearGradient1284);fill-opacity:1;fill-rule:nonzero;stroke:none;stroke-width:6.5704;stroke-miterlimit:4;stroke-dasharray:none"
       d="m 92.870744,-55.32816 a 45.950794,136.2286 0 0 1 0,192.65633 45.950794,136.2286 0 0 1 -64.9843,-1e-5 45.950794,136.2286 0 0 1 0,-192.65632 45.950794,136.2286 0 0 1 64.9843,0 z" />
  </g>
</svg>
