<?xml version="1.0" encoding="UTF-8" standalone="no"?>
<svg
   xmlns:dc="http://purl.org/dc/elements/1.1/"
   xmlns:cc="http://creativecommons.org/ns#"
   xmlns:rdf="http://www.w3.org/1999/02/22-rdf-syntax-ns#"
   xmlns:svg="http://www.w3.org/2000/svg"
   xmlns="http://www.w3.org/2000/svg"
   xmlns:sodipodi="http://sodipodi.sourceforge.net/DTD/sodipodi-0.dtd"
   xmlns:inkscape="http://www.inkscape.org/namespaces/inkscape"
   width="512mm"
   height="512mm"
   viewBox="0 0 512 512"
   version="1.1"
   id="svg8"
   sodipodi:docname="zoomfit.svg"
   inkscape:version="1.0.1 (3bc2e813f5, 2020-09-07)"
   enable-background="new"
   inkscape:export-filename="/home/vm/Desktop/failed.png"
   inkscape:export-xdpi="6.3499999"
   inkscape:export-ydpi="6.3499999">
  <defs
     id="defs2">
    <filter
       inkscape:menu-tooltip="Transparent plastic with deep colors"
       inkscape:menu="Bevels"
       inkscape:label="Deep Colors Plastic"
       style="color-interpolation-filters:sRGB"
       id="filter4588-9">
      <feGaussianBlur
         in="SourceGraphic"
         result="result6"
         stdDeviation="10"
         id="feGaussianBlur4568-2" />
      <feComposite
         in2="SourceGraphic"
         in="result6"
         operator="xor"
         id="feComposite4570-7" />
      <feGaussianBlur
         result="result2"
         stdDeviation="10"
         id="feGaussianBlur4572-4" />
      <feComposite
         in2="SourceGraphic"
         operator="atop"
         result="result91"
         id="feComposite4574-2" />
      <feComposite
         result="result4"
         in="result2"
         operator="xor"
         in2="result91"
         id="feComposite4576-5" />
      <feGaussianBlur
         in="result4"
         result="result3"
         stdDeviation="5"
         id="feGaussianBlur4578-2" />
      <feSpecularLighting
         lighting-color="#ffffff"
         in="result3"
         result="result5"
         specularExponent="35"
         specularConstant="3"
         surfaceScale="12"
         id="feSpecularLighting4582-4">
        <feDistantLight
           elevation="45"
           azimuth="235"
           id="feDistantLight4580-4" />
      </feSpecularLighting>
      <feComposite
         k4="0"
         k1="0"
         in2="result5"
         in="SourceGraphic"
         k3="0.7"
         k2="0.8"
         operator="arithmetic"
         result="result7"
         id="feComposite4584-3" />
      <feComposite
         in="result7"
         operator="in"
         in2="SourceGraphic"
         id="feComposite4586-8" />
    </filter>
    <filter
       inkscape:menu-tooltip="Transparent plastic with deep colors"
       inkscape:menu="Bevels"
       inkscape:label="Deep Colors Plastic"
       style="color-interpolation-filters:sRGB;"
       id="filter4944">
      <feGaussianBlur
         in="SourceGraphic"
         result="result6"
         stdDeviation="10"
         id="feGaussianBlur4924" />
      <feComposite
         in2="SourceGraphic"
         in="result6"
         operator="xor"
         id="feComposite4926" />
      <feGaussianBlur
         result="result2"
         stdDeviation="10"
         id="feGaussianBlur4928" />
      <feComposite
         in2="SourceGraphic"
         operator="atop"
         result="result91"
         id="feComposite4930" />
      <feComposite
         result="result4"
         in="result2"
         operator="xor"
         in2="result91"
         id="feComposite4932" />
      <feGaussianBlur
         in="result4"
         result="result3"
         stdDeviation="5"
         id="feGaussianBlur4934" />
      <feSpecularLighting
         lighting-color="rgb(255,255,255)"
         in="result3"
         result="result5"
         specularExponent="35"
         specularConstant="3"
         surfaceScale="12"
         id="feSpecularLighting4938">
        <feDistantLight
           elevation="45"
           azimuth="235"
           id="feDistantLight4936" />
      </feSpecularLighting>
      <feComposite
         in2="result5"
         in="SourceGraphic"
         k3="0.7"
         k2="0.8"
         operator="arithmetic"
         result="result7"
         id="feComposite4940" />
      <feComposite
         in="result7"
         operator="in"
         in2="SourceGraphic"
         id="feComposite4942" />
    </filter>
    <filter
       inkscape:label="Matte Bevel"
       inkscape:menu="Bevels"
       inkscape:menu-tooltip="Soft, pastel-colored, blurry bevel"
       x="-0.25"
       y="-0.25"
       width="1.5"
       height="1.5"
       style="color-interpolation-filters:sRGB;"
       id="filter4491">
      <feGaussianBlur
         stdDeviation="1"
         result="result6"
         id="feGaussianBlur4467" />
      <feComposite
         operator="in"
         in="result6"
         in2="result6"
         result="result7"
         id="feComposite4469" />
      <feGaussianBlur
         stdDeviation="8"
         result="result3"
         in="result7"
         id="feGaussianBlur4471" />
      <feComposite
         in2="result7"
         operator="over"
         result="result91"
         id="feComposite4473" />
      <feComposite
         operator="in"
         in="result3"
         result="result5"
         in2="result91"
         id="feComposite4475" />
      <feColorMatrix
         values="0 0 0 -1 0 0 0 0 -1 0 0 0 0 -1 0 0 0 0 1 0 "
         result="result4"
         id="feColorMatrix4477" />
      <feSpecularLighting
         surfaceScale="3"
         specularConstant="2"
         specularExponent="45"
         in="result4"
         result="result11"
         id="feSpecularLighting4481">
        <fePointLight
           x="-5000"
           y="-10000"
           z="20000"
           id="fePointLight4479" />
      </feSpecularLighting>
      <feComposite
         operator="arithmetic"
         k1="1"
         in2="result4"
         result="result10"
         id="feComposite4483" />
      <feComposite
         operator="arithmetic"
         k2="0.5"
         k3="1"
         in="result5"
         result="result8"
         in2="result10"
         id="feComposite4485" />
      <feComposite
         result="result9"
         in2="result8"
         id="feComposite4487" />
      <feBlend
         mode="normal"
         in2="result9"
         id="feBlend4489" />
    </filter>
    <filter
       inkscape:label="Button"
       inkscape:menu="Bevels"
       inkscape:menu-tooltip="Soft bevel, slightly depressed middle"
       style="color-interpolation-filters:sRGB;"
       id="filter4527">
      <feGaussianBlur
         stdDeviation="2.3"
         in="SourceAlpha"
         result="result0"
         id="feGaussianBlur4501" />
      <feMorphology
         in="SourceAlpha"
         radius="6.6"
         result="result1"
         id="feMorphology4503" />
      <feGaussianBlur
         stdDeviation="8.9"
         in="result1"
         id="feGaussianBlur4505" />
      <feColorMatrix
         values="1 0 0 0 0 0 1 0 0 0 0 0 1 0 0 0 0 0 0.3 0"
         result="result91"
         id="feColorMatrix4507" />
      <feComposite
         in="result0"
         operator="out"
         result="result2"
         in2="result91"
         id="feComposite4509" />
      <feGaussianBlur
         stdDeviation="1.7"
         result="result4"
         id="feGaussianBlur4511" />
      <feDiffuseLighting
         surfaceScale="10"
         id="feDiffuseLighting4515">
        <feDistantLight
           azimuth="225"
           elevation="45"
           id="feDistantLight4513" />
      </feDiffuseLighting>
      <feBlend
         in2="SourceGraphic"
         mode="multiply"
         id="feBlend4517" />
      <feComposite
         in2="SourceAlpha"
         operator="in"
         result="result3"
         id="feComposite4519" />
      <feSpecularLighting
         in="result4"
         surfaceScale="5"
         specularExponent="17.9"
         id="feSpecularLighting4523">
        <feDistantLight
           azimuth="225"
           elevation="45"
           id="feDistantLight4521" />
      </feSpecularLighting>
      <feComposite
         in2="result3"
         operator="atop"
         id="feComposite4525" />
    </filter>
  </defs>
  <sodipodi:namedview
     id="base"
     pagecolor="#ffffff"
     bordercolor="#666666"
     borderopacity="1.0"
     inkscape:pageopacity="0.0"
     inkscape:pageshadow="2"
     inkscape:zoom="0.16"
     inkscape:cx="508.29512"
     inkscape:cy="1889.6137"
     inkscape:document-units="mm"
     inkscape:current-layer="layer1"
     inkscape:document-rotation="0"
     showgrid="false"
     inkscape:window-width="1888"
     inkscape:window-height="982"
     inkscape:window-x="0"
     inkscape:window-y="0"
     inkscape:window-maximized="0"
     inkscape:snap-global="false"
     inkscape:snap-bbox="true"
     showguides="true"
     inkscape:guide-bbox="true"
     inkscape:snap-midpoints="true" />
  <metadata
     id="metadata5">
    <rdf:RDF>
      <cc:Work
         rdf:about="">
        <dc:format>image/svg+xml</dc:format>
        <dc:type
           rdf:resource="http://purl.org/dc/dcmitype/StillImage" />
        <dc:title></dc:title>
      </cc:Work>
    </rdf:RDF>
  </metadata>
  <g
     inkscape:label="Layer 1"
     inkscape:groupmode="layer"
     id="layer1"
     transform="translate(0,215)">
    <g
       id="g1795"
       style="stroke:#008080">
      <path
         id="rect955"
         style="fill:#ffffff;stroke:#008080;stroke-width:14.4065"
         d="m 188.74618,-189.97917 a 163.92146,163.92146 0 0 0 -115.713895,48.01161 163.92146,163.92146 0 0 0 0,231.819833 163.92146,163.92146 0 0 0 221.513575,9.462239 l 17.18708,17.187088 c -5.91327,13.73113 -3.24726,30.21425 8.0009,41.46241 l 103.01573,103.0162 c 14.74481,14.74481 38.48568,14.74481 53.2305,0 14.74478,-14.74479 14.74478,-38.48569 0,-53.23047 L 372.96434,104.73351 C 361.716,93.4852 345.23269,90.819497 331.50144,96.733109 L 314.31387,79.545522 a 163.92146,163.92146 0 0 0 -9.46175,-221.513082 163.92146,163.92146 0 0 0 -116.10594,-48.01161 z" />
      <g
         id="g1777"
         transform="translate(21.300475,-1.1267675)"
         style="stroke:#008080">
        <path
           id="path1747"
           style="fill:#ffffff;stroke:#008080;stroke-width:7.9375;stroke-miterlimit:4;stroke-dasharray:none"
           d="M 71.822518,-113.60899 H 144.70703 L 71.822518,-40.735471 Z"
           sodipodi:nodetypes="cccc" />
        <path
           id="path1749"
           style="fill:#ffffff;stroke:#008080;stroke-width:7.9375;stroke-miterlimit:4;stroke-dasharray:none"
           d="M 269.91035,-113.60899 H 197.026 l 72.88435,72.873519 z"
           sodipodi:nodetypes="cccc" />
        <path
           id="path1753"
           style="fill:#ffffff;stroke:#008080;stroke-width:7.9375;stroke-miterlimit:4;stroke-dasharray:none"
           d="M 71.822518,72.363204 H 144.70703 L 71.822518,-0.51034463 Z"
           sodipodi:nodetypes="cccc" />
        <path
           id="path1755"
           style="fill:#ffffff;stroke:#008080;stroke-width:7.9375;stroke-miterlimit:4;stroke-dasharray:none"
           d="M 269.91035,72.363204 H 197.026 l 72.88435,-72.87354863 z"
           sodipodi:nodetypes="cccc" />
      </g>
    </g>
  </g>
</svg>
